…
view(zori_long)
```

``` r
zori_merged = zori_long |>
  left_join(zip_df, by = "zip") |>
  select(zip, county, neighborhood, date, zori, everything())

zori_merged
```

    ## # A tibble: 10,450 × 19
    ##    zip   county neighborhood    date        zori region_id size_rank region_name
    ##    <chr> <chr>  <chr>           <date>     <dbl>     <dbl>     <dbl>       <dbl>
    ##  1 11368 Queens West Queens     2024-07-31 2322.     62080         4       11368
    ##  2 11368 Queens West Queens     2024-08-31 2282.     62080         4       11368
    ##  3 11385 Queens West Central Q… 2016-05-31 2266.     62093         7       11385
    ##  4 11385 Queens West Central Q… 2016-06-30 2292.     62093         7       11385
    ##  5 11385 Queens West Central Q… 2016-07-31 2321.     62093         7       11385
    ##  6 11385 Queens West Central Q… 2016-08-31 2343.     62093         7       11385
    ##  7 11385 Queens West Central Q… 2016-09-30 2337.     62093         7       11385
    ##  8 11385 Queens West Central Q… 2016-10-31 2345.     62093         7       11385
    ##  9 11385 Queens West Central Q… 2016-11-30 2320.     62093         7       11385
    ## 10 11385 Queens West Central Q… 2016-12-31 2326.     62093         7       11385
    ## # ℹ 10,440 more rows
    ## # ℹ 11 more variables: region_type <chr>, state_name <chr>, state <chr>,
    ## #   city <chr>, metro <chr>, county_name <chr>, state_fips <dbl>,
    ## #   county_code <chr>, county_fips <dbl>, zip_code <dbl>, file_date <chr>
…
